제목 : 고객사 보안 규정 준수
가중치 : 10%
KPI : 고객사 보안 규정 준수

측정방법(산식)

● 측정방법(산식)
고객사 보안규정 위반 건수 10%

● 상세전략(구체적 목표기술)
① 우정 사이버 안전센터 출입시 카메라 반입 금지
② 자료의 별도 복사본 보관 금지
③ 인터넷 사용 PC의 업무자료 저장 금지
④ 단말기에 부당한 정보보유 금지

● 달성목표
보안규정 위반 건수 0건
-----------------------------------------------------------------------------------------------------

제목 : 침해시도, 사고 분석 건수
가중치 : 25%
KPI : 침해시도, 사고 분석 건수

측정방법(산식)

● 측정방법(산식)
{(전체 이벤트 건수 - 지연처리 이벤트 건수) / 전체 이벤트 건수 * 100%
* SIEM 이벤트 대상으로 등록 후 15분 이내 처리 기준

● 상세전략(구체적 목표기술)
① 지속적인 모니터링을 통한 이벤트 분석처리 및 SIEM 침해사고대응 이벤트 15분 이내 적기 처리
② SIEM을 이용한 우정사업본부 클라우드 사용자 위협정보 분석 및 TMS 이벤트 15분 이내 적기 처리
③ 팀원과 커뮤니케이션을 통한 효율적인 업무 분배로 이벤트 처리시간 최소화

● 달성목표
- SLA 보안이벤트 처리 준수율 평가 기준 매월 '상' 기대 수준(99.6% 이상) 달성

-------------------------------------------------------------------------------------------------------------

제목 : 침해 사고 처리율
가중치 : 25%
KPI : 침해 사고 처리율


측정방법(산식)

● 측정방법(산식)
{(전체 수동차단 건수 - 지연처리 이벤트 건수) / 전체 이벤트 건수 * 100%
* SIEM 이벤트 대상으로 등록 후 15분 이내 처리 기준

● 상세전략(구체적 목표기술)
① 지속적인 모니터링을 통한 이벤트 분석처리 및 SIEM 침해사고대응 이벤트 15분 이내 적기 처리
② 기존 수동차단 건수 이벤트 분석을 통한 사례확인 및 숙달
③ 최근 위협정보 및 정보보호동향 숙지를 통한 수동 차단 이벤트 처리능력 향상

● 달성목표
- SLA 수동차단 처리 준수율 평가 기준 매월 '상' (100%) 기대수준 달성



----------------------------------------------------------------------------------------------------------

제목 : 매뉴얼 개정 건수
가중치 : 15%
KPI : 매뉴얼 개정 건수

측정방법(산식)

● 측정방법(산식)
- 우정사업정보센터 보안관제 메뉴얼 개정 건수

● 상세전략(구체적 목표기술)
- 2023년도 보고서 메뉴얼 작성 -> 월간보고서

● 달성목표
- 10월 이전 보고서 메뉴얼 초안 작성 완료

-------------------------------------------------------------------------------------------------------------

제목 : 근태 무사고율
가중치 : 10%
KPI : 근태 무사고율

측정방법(산식)

● 측정방법(산식)
{(근무일수 - 근태사고(무단결근)일수) / 근무일수} * 100%

● 상세전략(구체적 목표기술)
회사(고객사) 복무규정에 따른 출퇴근 시간 준수 및 근태 미사고

● 달성목표
복무규정에 따른 출퇴근 시간 준수 및 근태 사고 0건


----------------------------------------------------------------------------------------------------------------

제목 : 직무 관련 교육 이수 건수
가중치 : 10%
KPI : 직무 관련 교육 이수 건수

측정방법(산식)

● 측정방법(산식)
직무 교육 이수 건수

● 상세전략(구체적 목표기술)
inflearn에서 ISMS-P 인증심사원 자격시험 강의 수강
inflearn에서 모의해킹 시나리오 강의 수강

● 달성목표
2개 이상 강의 이수(증명:수료증 제출)

-----------------------------

제목 : 관련 자격증 취득 증가율
가중치 : 5%
KPI : 관련 자격증 취득 증가율

측정방법(산식)

● 측정방법(산식)
금년도 컨설턴트 1인당 관련 자격증 취득 건수/작년도 컨설턴트 1인당 관련 자격증 취득 건수

● 상세전략(구체적 목표기술)
정보보안기사(필기) - 2023.5.31 시험 접수 예정
빅데이터분석기사(필기) 2023.8.21 시험 접수 예정


● 달성목표
정보보안기사, 빅데이터분석기사 자격증 취득
